Manipulación de datos biológicos con R
…
https://bookdown.org/ansellbr/WEHI_tidyR_course_book/manipulating-data-with-dplyr.html

Ejemplo. select() en acción.

Separar los datos ambientales.

Ambientales<-Datos %>% select(Tipo_Suelo,Sitio,Temperatura_Suelo,
                              pH_Suelo, Materia_Orgánica,Humedad_Suelo)
Ambientales

# A tibble: 40 × 6
   Tipo_Suelo Sitio Temperatura_Suelo pH_Suelo Materia_Orgánica Humedad_Suelo
   <chr>      <chr>             <dbl>    <dbl>            <dbl>         <dbl>
 1 Agrícola   S1                 19.3     6.5              3.56          14.3
 2 Forestal   S1                 16.2     6.42             3.96          22.3
 3 Humedal    S1                 18.7     5.34            11.3           51.9
 4 Urbano     S1                 21.7     6.45             1.33          14.8
 5 Agrícola   S2                 29.1     6.21             1.31          28.6
 6 Forestal   S2                 12.1     6.26             6.92          28.6
 7 Humedal    S2                 27.8     5.8              9.95          38.8
 8 Urbano     S2                 19.6     6.45             1.29          22.3
 9 Agrícola   S3                 23.3     6.33             2.02          18.6
10 Forestal   S3                 22.9     4.84             5.42          21.1
# ℹ 30 more rows
…
https://bookdown.org/ansellbr/WEHI_tidyR_course_book/manipulating-data-with-dplyr.html

Ejemplo. mutate() en acción.

Datos_Abun<-Datos %>% 
  mutate(Abundancia=rowSums(select(., Actinobacteria:Basidiomycota)))

Datos_Abun %>% select(., Tipo_Suelo,Sitio,Abundancia)

# A tibble: 40 × 3
   Tipo_Suelo Sitio Abundancia
   <chr>      <chr>      <dbl>
 1 Agrícola   S1           605
 2 Forestal   S1           676
 3 Humedal    S1           723
 4 Urbano     S1           392
 5 Agrícola   S2           618
 6 Forestal   S2           668
 7 Humedal    S2           731
 8 Urbano     S2           419
 9 Agrícola   S3           587
10 Forestal   S3           695
# ℹ 30 more rows
…
https://jules32.github.io/r-for-excel-users/tidying.html

Ejemplo: unite() en acción.

Crear una columna de identificación de las observaciones que combine el Tipo de suelo y el sitio de muestreo.

Datos_ID<-Datos_Abun %>% 
  unite(Tipo_Suelo,Sitio, col = "ID",sep = "-",remove = FALSE)
Datos_ID

Ejemplo: unite() en acción.

# A tibble: 40 × 13
   ID          Tipo_Suelo Sitio Temperatura_Suelo pH_Suelo Materia_Orgánica
   <chr>       <chr>      <chr>             <dbl>    <dbl>            <dbl>
 1 Agrícola-S1 Agrícola   S1                 19.3     6.5              3.56
 2 Forestal-S1 Forestal   S1                 16.2     6.42             3.96
 3 Humedal-S1  Humedal    S1                 18.7     5.34            11.3 
 4 Urbano-S1   Urbano     S1                 21.7     6.45             1.33
 5 Agrícola-S2 Agrícola   S2                 29.1     6.21             1.31
 6 Forestal-S2 Forestal   S2                 12.1     6.26             6.92
 7 Humedal-S2  Humedal    S2                 27.8     5.8              9.95
 8 Urbano-S2   Urbano     S2                 19.6     6.45             1.29
 9 Agrícola-S3 Agrícola   S3                 23.3     6.33             2.02
10 Forestal-S3 Forestal   S3                 22.9     4.84             5.42
# ℹ 30 more rows
# ℹ 7 more variables: Humedad_Suelo <dbl>, Actinobacteria <dbl>,
#   Proteobacteria <dbl>, Firmicutes <dbl>, Ascomycota <dbl>,
#   Basidiomycota <dbl>, Abundancia <dbl>
…
Transformar la tabla de datos al formato largo.

Datos_largos <- Datos_ID %>% 
  select(ID,Tipo_Suelo,Sitio,Actinobacteria,Proteobacteria,Firmicutes,
                         Ascomycota,Basidiomycota) %>% 
  pivot_longer(cols = c(Actinobacteria,Proteobacteria,Firmicutes,
                         Ascomycota,Basidiomycota),
                names_to = "Grupo", 
                values_to = "Abundancia")
Datos_largos

Ejemplo: pivot_longer() en acción.

# A tibble: 200 × 5
   ID          Tipo_Suelo Sitio Grupo          Abundancia
   <chr>       <chr>      <chr> <chr>               <dbl>
 1 Agrícola-S1 Agrícola   S1    Actinobacteria        152
 2 Agrícola-S1 Agrícola   S1    Proteobacteria        242
 3 Agrícola-S1 Agrícola   S1    Firmicutes            104
 4 Agrícola-S1 Agrícola   S1    Ascomycota             66
 5 Agrícola-S1 Agrícola   S1    Basidiomycota          41
 6 Forestal-S1 Forestal   S1    Actinobacteria        217
 7 Forestal-S1 Forestal   S1    Proteobacteria        204
 8 Forestal-S1 Forestal   S1    Firmicutes             77
 9 Forestal-S1 Forestal   S1    Ascomycota             91
10 Forestal-S1 Forestal   S1    Basidiomycota          87
# ℹ 190 more rows
…
https://jules32.github.io/r-for-excel-users/tidying.html

Ejemplo: separate() en acción.

Eliminemos la columnas tipo de suelo y sitio de los <<Datos_ID>> para suponer que la base de datos no las trae originalmente y separar la columna ID para generarlas.

Datos_ID %>% 
  select(.,-c(Tipo_Suelo:Sitio)) %>% 
  separate(col = ID, 
           into = c("Tipo_Suelo", "Sitio"),
           sep = "-")

Ejemplo: separate() en acción.

# A tibble: 40 × 12
   Tipo_Suelo Sitio Temperatura_Suelo pH_Suelo Materia_Orgánica Humedad_Suelo
   <chr>      <chr>             <dbl>    <dbl>            <dbl>         <dbl>
 1 Agrícola   S1                 19.3     6.5              3.56          14.3
 2 Forestal   S1                 16.2     6.42             3.96          22.3
 3 Humedal    S1                 18.7     5.34            11.3           51.9
 4 Urbano     S1                 21.7     6.45             1.33          14.8
 5 Agrícola   S2                 29.1     6.21             1.31          28.6
 6 Forestal   S2                 12.1     6.26             6.92          28.6
 7 Humedal    S2                 27.8     5.8              9.95          38.8
 8 Urbano     S2                 19.6     6.45             1.29          22.3
 9 Agrícola   S3                 23.3     6.33             2.02          18.6
10 Forestal   S3                 22.9     4.84             5.42          21.1
# ℹ 30 more rows
# ℹ 6 more variables: Actinobacteria <dbl>, Proteobacteria <dbl>,
#   Firmicutes <dbl>, Ascomycota <dbl>, Basidiomycota <dbl>, Abundancia <dbl>
…
Análisis avanzado - across()

across() aplica una función a múltiples columnas simultáneamente.

Ejemplo. Estandarización de las variables ambientales.

Ambientales_Est<-Ambientales %>% 
mutate(across( c(Temperatura_Suelo,pH_Suelo,Materia_Orgánica,Humedad_Suelo), 
               ~ round(((.x - mean(.x)) / sd(.x)),2)))
Ambientales_Est

Análisis avanzado - across()

# A tibble: 40 × 6
   Tipo_Suelo Sitio Temperatura_Suelo pH_Suelo Materia_Orgánica Humedad_Suelo
   <chr>      <chr>             <dbl>    <dbl>            <dbl>         <dbl>
 1 Agrícola   S1                -0.39     0.18            -0.34         -1.02
 2 Forestal   S1                -0.96     0.08            -0.21         -0.4 
 3 Humedal    S1                -0.5     -1.28             2.31          1.89
 4 Urbano     S1                 0.06     0.12            -1.1          -0.98
 5 Agrícola   S2                 1.43    -0.18            -1.11          0.09
 6 Forestal   S2                -1.73    -0.12             0.8           0.08
 7 Humedal    S2                 1.18    -0.7              1.84          0.88
 8 Urbano     S2                -0.34     0.12            -1.12         -0.4 
 9 Agrícola   S3                 0.35    -0.03            -0.87         -0.69
10 Forestal   S3                 0.27    -1.92             0.29         -0.5 
# ℹ 30 more rows
…
